…
``` r
#I am interested in a plot of the distribution of tree diameter as I want a visual representation of the data to determine if the data is skewed and what the more common diameters are. Binwidth and coord_cartesian were used to display the histogram more clearly. 
```

# 2\. Create a new variable based on other variables in your data: I will be creating a new variable for radius, the radius formula is diameter/2.

``` r
vancouver_trees %>%
  mutate(radius = diameter/2)
```

    ## # A tibble: 146,611 × 21
    ##    tree_id civic_number std_st…¹ genus…² speci…³ culti…⁴ commo…⁵ assig…⁶ root_…⁷
    ##      <dbl>        <dbl> <chr>    <chr>   <chr>   <chr>   <chr>   <chr>   <chr>  
    ##  1  149556          494 W 58TH … ULMUS   AMERIC… BRANDON BRANDO… N       N      
    ##  2  149563          450 W 58TH … ZELKOVA SERRATA <NA>    JAPANE… N       N      
    ##  3  149579         4994 WINDSOR… STYRAX  JAPONI… <NA>    JAPANE… N       N      
    ##  4  149590          858 E 39TH … FRAXIN… AMERIC… AUTUMN… AUTUMN… Y       N      
    ##  5  149604         5032 WINDSOR… ACER    CAMPES… <NA>    HEDGE … N       N      
    ##  6  149616          585 W 61ST … PYRUS   CALLER… CHANTI… CHANTI… N       N      
    ##  7  149617         4909 SHERBRO… ACER    PLATAN… COLUMN… COLUMN… N       N      
    ##  8  149618         4925 SHERBRO… ACER    PLATAN… COLUMN… COLUMN… N       N      
    ##  9  149619         4969 SHERBRO… ACER    PLATAN… COLUMN… COLUMN… N       N      
    ## 10  149625          720 E 39TH … FRAXIN… AMERIC… AUTUMN… AUTUMN… N       N      
    ## # … with 146,601 more rows, 12 more variables: plant_area <chr>,
    ## #   on_street_block <dbl>, on_street <chr>, neighbourhood_name <chr>,
    ## #   street_side_name <chr>, height_range_id <dbl>, diameter <dbl>, curb <chr>,
    ## #   date_planted <date>, longitude <dbl>, latitude <dbl>, radius <dbl>, and
    ## #   abbreviated variable names ¹​std_street, ²​genus_name, ³​species_name,
    ## #   ⁴​cultivar_name, ⁵​common_name, ⁶​assigned, ⁷​root_barrier
…
<!------------------------- Start your work below ----------------------------->

1: How does tree diameter vary across neighbourhoods?

``` r
#Summarizing: 2
#Compute the number of observations for at least one of your categorical variables: How many different diameters of trees are in each neighborhood. 
vancouver_trees %>%
  group_by(neighbourhood_name) %>%
  summarize(distinct_diameters = n_distinct(diameter))
```

    ## # A tibble: 22 × 2
    ##    neighbourhood_name       distinct_diameters
    ##    <chr>                                 <int>
    ##  1 ARBUTUS-RIDGE                           171
    ##  2 DOWNTOWN                                128
    ##  3 DUNBAR-SOUTHLANDS                       234
    ##  4 FAIRVIEW                                153
    ##  5 GRANDVIEW-WOODLAND                      183
    ##  6 HASTINGS-SUNRISE                        211
    ##  7 KENSINGTON-CEDAR COTTAGE                223
    ##  8 KERRISDALE                              191
    ##  9 KILLARNEY                               144
    ## 10 KITSILANO                               264
    ## # … with 12 more rows
…
